<svg xmlns="http://www.w3.org/2000/svg" width="135.9" height="50.645" viewBox="0 0 1500 559">
  <metadata><?xpacket begin="﻿" id="W5M0MpCehiHzreSzNTczkc9d"?>
<x:xmpmeta xmlns:x="adobe:ns:meta/" x:xmptk="Adobe XMP Core 5.6-c138 79.159824, 2016/09/14-01:09:01        ">
   <rdf:RDF xmlns:rdf="http://www.w3.org/1999/02/22-rdf-syntax-ns#">
      <rdf:Description rdf:about=""/>
   </rdf:RDF>
</x:xmpmeta>
                                                                                                    
                                                                                                    
                                                                                                    
                                                                                                    
                                                                                                    
                                                                                                    
                                                                                                    
                                                                                                    
                                                                                                    
                                                                                                    
                                                                                                    
                                                                                                    
                                                                                                    
                                                                                                    
                                                                                                    
                                                                                                    
                                                                                                    
                                                                                                    
                                                                                                    
                                                                                                    
                           
<?xpacket end="w"?></metadata>
<defs>
    <style>
      .cls-1 {
        fill: #fff;
        fill-rule: evenodd;
      }
    </style>
  </defs>
  <path id="TM" class="cls-1" d="M1382.19,205.311h-34.98v6.175h13.63V249.38h7.6V211.486h13.75v-6.175Zm5.78,0V249.38h7.63V234.852l-0.75-19.4,12.99,33.929h5.48l13.02-33.96-0.76,19.432V249.38h7.64V205.311h-9.91l-12.69,33.778-12.71-33.778h-9.94Z"/>
  <path class="cls-1" d="M1423.49,482.393H1314.43c-18.5,0-30.62-7.357-30.62-30.712V274.121c0-15.678,10.21-26.235,26.15-26.235s26.15,10.557,26.15,26.235V438.244h87.38c14.98,0,27.1,7.679,27.1,22.074S1438.47,482.393,1423.49,482.393Zm-214.32,4.16c-15.95,0-26.15-10.557-26.15-26.235v-186.2c0-15.678,10.2-26.235,26.15-26.235s26.15,10.557,26.15,26.235v186.2C1235.32,476,1225.11,486.553,1209.17,486.553Zm-77.86,0c-11.48,0-19.77-4.16-23.6-14.4l-13.39-38.392h-84.19l-13.712,38.392c-3.507,10.237-10.842,14.4-23.278,14.4-14.351,0-24.237-8.96-24.237-23.035,0-5.758,3.19-15.037,5.1-20.156l67.605-179.479c4.47-11.839,12.76-16,25.51-16h12.44c11.8,0,22.32,2.878,28.06,19.194l63.14,176.282c1.91,5.119,5.11,14.4,5.11,20.156C1155.87,476.314,1144.7,486.553,1131.31,486.553Zm-78.13-181.72h-0.64l-30.93,92.459h61.23ZM890.809,372.018c26.786,3.841,31.571,23.356,31.571,46.711,0,26.553,7.015,36.47,7.015,47.348,0,12.157-12.437,20.476-24.554,20.476-28.7,0-30.933-27.834-30.933-37.112,0-40.31-7.336-56.626-36.036-56.626h-51.66v67.5c0,15.678-10.205,26.235-26.149,26.235S733.915,476,733.915,460.318V282.757c0-23.353,12.116-30.713,30.612-30.713h87.059c62.184,0,78.766,34.233,78.766,63.987,0,24.954-14.671,49.589-39.543,55.349v0.638Zm-50.7-79.662H786.212v62.066h52.3c19.771,0,39.541-5.119,39.541-31.032C878.052,298.755,863.065,292.356,840.1,292.356Zm-413.741,194.2c-11.481,0-19.771-4.16-23.6-14.4l-13.394-38.392H305.184l-13.713,38.392c-3.506,10.237-10.841,14.4-23.278,14.4-14.351,0-24.236-8.96-24.236-23.035,0-5.758,3.188-15.037,5.1-20.156l67.605-179.479c4.465-11.839,12.755-16,25.511-16h12.436c11.8,0,22.324,2.878,28.063,19.194l63.141,176.282c1.914,5.119,5.1,14.4,5.1,20.156C450.918,476.314,439.757,486.553,426.363,486.553Zm-78.128-181.72H347.6l-30.932,92.459h61.226ZM227.643,296.2H178.216V460.318c0,15.678-10.205,26.235-26.148,26.235s-26.15-10.557-26.15-26.235V296.2H76.489c-14.988,0-27.106-7.679-27.106-22.075S61.5,252.044,76.489,252.044H227.643c14.988,0,27.106,7.678,27.106,22.077S242.631,296.2,227.643,296.2Z"/>
  <path class="cls-1" d="M692.5,262.356V460.919c0,52.226-52.893,46.539-52.893,46.539H515.153c-48.226,0-40.447-46.539-40.447-46.539V262.356c0-25.854,6.222-31.025,6.222-31.025s42-83.253,52.892-105.488,31.112-18.615,31.112-18.615h3.112v38.313a31.1,31.1,0,1,0,28-1.585V107.228h9.334a32.38,32.38,0,0,1,28,15.514s46.15,92.041,52.892,105.486S692.5,262.356,692.5,262.356Zm-48.775-15.538H594.607c-6.873,0-69.2.026-69.2,0.026-35.188,0-31.336,15.15-31.336,69.375V422.006c0,53.522-9.744,63.734,42.444,63.734h98.663c33.625,0,38.528-20.775,38.528-40.494V336.8h-95.59c-10.507,0-13.184,11.52-13.184,21.733,0,7.392,1.274,21.43,13.184,21.43H616.9v43.677c0,13.382-3.152,16.9-15.762,16.9H576.378c-38.311,0-33.887-1.09-33.887-37v-74.5c0-35.565-2.7-34.2,40.192-34.2H601.4c12.61,0,15.761-2.8,15.761,6.62,0,10.915,11.452,18.888,29.694,18.327s26.847-9.979,26.847-21.6C673.706,277.422,677.343,246.818,643.721,246.818Zm-61.677-83.744a7.766,7.766,0,0,1-7.778-7.756V59.142a7.779,7.779,0,0,1,15.557,0v96.176A7.767,7.767,0,0,1,582.044,163.074Z"/>
</svg>
